{
	"name": "SEO Api",
	"version": "1.0.0",
	"description": "SEO Api Documentation",
	"title": "SEO Api Documentation",
	"url": "https://api.seoapi.io",
	"header": {
		"title": "GETTING STARTED",
		"filename": "apidoc-getting-started.md"
	},
	"template": {
		"withCompare": false,
		"withGenerator": false
	},
	"sampleUrl": null
}
